examples/04_gemv_aiv/01_fp16_cm_gemv_aiv/sim_result/OPPROF_20250306124456_BNDNKFSBWODOSYHT/dump/core11_wave.vcd
$date
    Mar 06, 2025       12:45:00
$end

$version
    vcd_version : 1
$end

$timescale
    1 tick
$end

$scope module AiCore $end
$scope module fixp $end
$var wire    1  aaaaa  fixp_l0c_read       $end
$var wire    1  aaaao  fixp_su_busy       $end
$upscope $end
$scope module mte $end
$var wire    1  aaaab  mte3_suv1_busy       $end
$var wire    1  aaaac  mte2_suv1_busy       $end
$var wire    1  aaaak  mte1_su_busy       $end
$var wire    1  aaaal  mte3_su_busy       $end
$var wire    1  aaaam  mte2_su_busy       $end
$var wire    1  aaaan  mte3_suv0_busy       $end
$var wire    1  aaaaq  mte2_suv0_busy       $end
$upscope $end
$scope module cube $end
$var wire    1  aaaad  cube_busy       $end
$upscope $end
$scope module suv0 $end
$var wire    1  aaaae  suv0_busy       $end
$upscope $end
$scope module vec0 $end
$var wire    1  aaaaf  vec0_busy       $end
$var wire    1  aaaap  vec0_ub_write       $end
$upscope $end
$scope module vec1 $end
$var wire    1  aaaag  vec1_ub_write       $end
$var wire    1  aaaah  vec1_busy       $end
$upscope $end
$scope module su $end
$var wire    1  aaaai  su_busy       $end
$upscope $end
$scope module suv1 $end
$var wire    1  aaaaj  suv1_busy       $end
$upscope $end
$upscope $end
$enddefinitions  $end

$comment
    all initial values are dumped below at time : tick = 0
$end
$dumpvars
0aaaaa
0aaaab
0aaaac
0aaaad
0aaaae
0aaaaf
0aaaag
0aaaah
0aaaai
0aaaaj
0aaaak
0aaaal
0aaaam
0aaaan
0aaaao
0aaaap
0aaaaq
$end

#12253
1aaaai
#12258
0aaaai
#12275
1aaaai
1aaaaj
#12276
1aaaae
#12277
0aaaae
0aaaai
#12278
1aaaai
0aaaaj
#12280
1aaaae
#12282
0aaaae
#12284
1aaaaj
1aaaak
1aaaam
#12286
1aaaae
0aaaaj
#12288
0aaaae
#12289
0aaaam
#12290
1aaaaj
0aaaak
#12292
0aaaaj
#12294
1aaaah
#12298
1aaaae
#12299
1aaaaj
#12300
0aaaae
#12302
1aaaaf
#12306
1aaaae
#12308
0aaaah
#12316
0aaaaf
#12941
0aaaai
#12946
1aaaai
#12951
0aaaai
#12952
1aaaai
#12953
0aaaai
#12958
1aaaai
#12961
0aaaai
#12990
1aaaai
#12991
1aaaah
#12995
0aaaai
#12996
1aaaai
#12997
1aaaaf
0aaaai
#13002
1aaaai
#13005
0aaaai
#13009
0aaaah
#13010
1aaaai
#13015
0aaaaf
0aaaai
#13016
1aaaai
#13017
0aaaai
#13022
1aaaai
#13025
0aaaai
#13031
1aaaai
#13036
0aaaai
#13037
1aaaai
#13077
0aaaai
#13079
1aaaai
#13084
0aaaai
#13086
1aaaai
#13088
0aaaai
#13090
1aaaai
#13095
0aaaai
#13102
1aaaai
#13362
0aaaai
#13363
1aaaai
#13568
0aaaae
#13569
0aaaaj
#13570
1aaaae
#13571
1aaaaj
#13747
0aaaai
#14327
0aaaaj
#14328
1aaaaj
#14333
0aaaae
#14334
1aaaae
#15051
0aaaaj
#15059
0aaaae
