examples/04_gemv_aiv/01_fp16_cm_gemv_aiv/sim_result/OPPROF_20250306124456_BNDNKFSBWODOSYHT/dump/core4_wave.vcd
$date
    Mar 06, 2025       12:45:00
$end

$version
    vcd_version : 1
$end

$timescale
    1 tick
$end

$scope module AiCore $end
$scope module fixp $end
$var wire    1  aaaaa  fixp_l0c_read       $end
$var wire    1  aaaao  fixp_su_busy       $end
$upscope $end
$scope module mte $end
$var wire    1  aaaab  mte3_suv1_busy       $end
$var wire    1  aaaac  mte2_suv1_busy       $end
$var wire    1  aaaak  mte1_su_busy       $end
$var wire    1  aaaal  mte3_su_busy       $end
$var wire    1  aaaam  mte2_su_busy       $end
$var wire    1  aaaan  mte3_suv0_busy       $end
$var wire    1  aaaaq  mte2_suv0_busy       $end
$upscope $end
$scope module cube $end
$var wire    1  aaaad  cube_busy       $end
$upscope $end
$scope module suv0 $end
$var wire    1  aaaae  suv0_busy       $end
$upscope $end
$scope module vec0 $end
$var wire    1  aaaaf  vec0_busy       $end
$var wire    1  aaaap  vec0_ub_write       $end
$upscope $end
$scope module vec1 $end
$var wire    1  aaaag  vec1_ub_write       $end
$var wire    1  aaaah  vec1_busy       $end
$upscope $end
$scope module su $end
$var wire    1  aaaai  su_busy       $end
$upscope $end
$scope module suv1 $end
$var wire    1  aaaaj  suv1_busy       $end
$upscope $end
$upscope $end
$enddefinitions  $end

$comment
    all initial values are dumped below at time : tick = 0
$end
$dumpvars
0aaaaa
0aaaab
0aaaac
0aaaad
0aaaae
0aaaaf
0aaaag
0aaaah
0aaaai
0aaaaj
0aaaak
0aaaal
0aaaam
0aaaan
0aaaao
0aaaap
0aaaaq
$end

#12238
1aaaai
#12245
0aaaai
#12246
1aaaai
#12251
1aaaae
#12252
1aaaak
1aaaam
#12254
1aaaaj
#12257
0aaaam
#12258
0aaaae
0aaaak
#12259
1aaaae
0aaaaj
#12260
1aaaaf
#12262
1aaaaj
#12264
0aaaaj
#12265
1aaaaj
#12266
1aaaah
#12274
0aaaaf
#12280
0aaaah
#12926
0aaaai
#12928
1aaaai
#12931
0aaaai
#12936
1aaaai
#12941
0aaaai
#12942
1aaaai
#12943
0aaaai
#12948
1aaaai
#12949
0aaaai
#12953
1aaaai
#12955
0aaaai
#12963
1aaaai
#12968
0aaaai
#12969
1aaaai
#12970
0aaaai
#12974
1aaaaf
#12975
1aaaah
#12976
1aaaai
#12977
0aaaai
#12981
1aaaai
#12983
0aaaai
#12988
1aaaai
#12992
0aaaaf
#12993
0aaaah
0aaaai
#12994
1aaaai
#12995
0aaaai
#13000
1aaaai
#13003
0aaaai
#13009
1aaaai
#13014
0aaaai
#13015
1aaaai
#13055
0aaaai
#13057
1aaaai
#13062
0aaaai
#13064
1aaaai
#13066
0aaaai
#13068
1aaaai
#13073
0aaaai
#13080
1aaaai
#13340
0aaaai
#13341
1aaaai
#13544
0aaaae
#13546
1aaaae
#13550
0aaaaj
#13552
1aaaaj
#13721
0aaaai
#14301
0aaaae
#14302
1aaaae
0aaaaj
#14303
1aaaaj
#15033
0aaaae
#15034
0aaaaj
