examples/04_gemv_aiv/01_fp16_cm_gemv_aiv/sim_result/OPPROF_20250306124456_BNDNKFSBWODOSYHT/dump/core5_wave.vcd
$date
    Mar 06, 2025       12:45:00
$end

$version
    vcd_version : 1
$end

$timescale
    1 tick
$end

$scope module AiCore $end
$scope module fixp $end
$var wire    1  aaaaa  fixp_l0c_read       $end
$var wire    1  aaaao  fixp_su_busy       $end
$upscope $end
$scope module mte $end
$var wire    1  aaaab  mte3_suv1_busy       $end
$var wire    1  aaaac  mte2_suv1_busy       $end
$var wire    1  aaaak  mte1_su_busy       $end
$var wire    1  aaaal  mte3_su_busy       $end
$var wire    1  aaaam  mte2_su_busy       $end
$var wire    1  aaaan  mte3_suv0_busy       $end
$var wire    1  aaaaq  mte2_suv0_busy       $end
$upscope $end
$scope module cube $end
$var wire    1  aaaad  cube_busy       $end
$upscope $end
$scope module suv0 $end
$var wire    1  aaaae  suv0_busy       $end
$upscope $end
$scope module vec0 $end
$var wire    1  aaaaf  vec0_busy       $end
$var wire    1  aaaap  vec0_ub_write       $end
$upscope $end
$scope module vec1 $end
$var wire    1  aaaag  vec1_ub_write       $end
$var wire    1  aaaah  vec1_busy       $end
$upscope $end
$scope module su $end
$var wire    1  aaaai  su_busy       $end
$upscope $end
$scope module suv1 $end
$var wire    1  aaaaj  suv1_busy       $end
$upscope $end
$upscope $end
$enddefinitions  $end

$comment
    all initial values are dumped below at time : tick = 0
$end
$dumpvars
0aaaaa
0aaaab
0aaaac
0aaaad
0aaaae
0aaaaf
0aaaag
0aaaah
0aaaai
0aaaaj
0aaaak
0aaaal
0aaaam
0aaaan
0aaaao
0aaaap
0aaaaq
$end

#12242
1aaaai
#12245
0aaaai
#12246
1aaaai
#12250
0aaaai
#12251
1aaaai
#12255
1aaaae
#12257
1aaaaj
#12258
0aaaae
1aaaak
1aaaam
#12259
1aaaae
#12260
0aaaaj
#12261
1aaaaj
#12263
0aaaae
0aaaam
#12264
1aaaae
0aaaak
#12265
1aaaaf
0aaaaj
#12266
1aaaaj
#12267
1aaaah
#12279
0aaaaf
#12281
0aaaah
#12924
0aaaai
#12929
1aaaai
#12934
0aaaai
#12935
1aaaai
#12936
0aaaai
#12941
1aaaai
#12944
0aaaai
#12949
1aaaai
#12954
0aaaai
#12955
1aaaai
#12956
0aaaai
#12962
1aaaai
#12963
0aaaai
#12971
1aaaai
#12973
0aaaai
#12976
1aaaaf
#12978
1aaaah
1aaaai
#12983
0aaaai
#12984
1aaaai
#12985
0aaaai
#12991
1aaaai
#12992
0aaaai
#12994
0aaaaf
1aaaai
#12996
0aaaah
0aaaai
#13002
1aaaai
#13007
0aaaai
#13008
1aaaai
#13048
0aaaai
#13050
1aaaai
#13055
0aaaai
#13057
1aaaai
#13059
0aaaai
#13061
1aaaai
#13066
0aaaai
#13073
1aaaai
#13334
0aaaai
#13335
1aaaai
#13552
0aaaae
#13554
1aaaae
#13556
0aaaaj
#13558
1aaaaj
#13716
0aaaai
#14307
0aaaae
#14308
1aaaae
#14311
0aaaaj
#14312
1aaaaj
#15033
0aaaae
#15036
0aaaaj
