examples/04_gemv_aiv/01_fp16_cm_gemv_aiv/sim_result/OPPROF_20250306124456_BNDNKFSBWODOSYHT/dump/core8_wave.vcd
$date
    Mar 06, 2025       12:45:00
$end

$version
    vcd_version : 1
$end

$timescale
    1 tick
$end

$scope module AiCore $end
$scope module fixp $end
$var wire    1  aaaaa  fixp_l0c_read       $end
$var wire    1  aaaao  fixp_su_busy       $end
$upscope $end
$scope module mte $end
$var wire    1  aaaab  mte3_suv1_busy       $end
$var wire    1  aaaac  mte2_suv1_busy       $end
$var wire    1  aaaak  mte1_su_busy       $end
$var wire    1  aaaal  mte3_su_busy       $end
$var wire    1  aaaam  mte2_su_busy       $end
$var wire    1  aaaan  mte3_suv0_busy       $end
$var wire    1  aaaaq  mte2_suv0_busy       $end
$upscope $end
$scope module cube $end
$var wire    1  aaaad  cube_busy       $end
$upscope $end
$scope module suv0 $end
$var wire    1  aaaae  suv0_busy       $end
$upscope $end
$scope module vec0 $end
$var wire    1  aaaaf  vec0_busy       $end
$var wire    1  aaaap  vec0_ub_write       $end
$upscope $end
$scope module vec1 $end
$var wire    1  aaaag  vec1_ub_write       $end
$var wire    1  aaaah  vec1_busy       $end
$upscope $end
$scope module su $end
$var wire    1  aaaai  su_busy       $end
$upscope $end
$scope module suv1 $end
$var wire    1  aaaaj  suv1_busy       $end
$upscope $end
$upscope $end
$enddefinitions  $end

$comment
    all initial values are dumped below at time : tick = 0
$end
$dumpvars
0aaaaa
0aaaab
0aaaac
0aaaad
0aaaae
0aaaaf
0aaaag
0aaaah
0aaaai
0aaaaj
0aaaak
0aaaal
0aaaam
0aaaan
0aaaao
0aaaap
0aaaaq
$end

#12246
1aaaai
#12253
0aaaai
#12254
1aaaai
#12256
0aaaai
#12266
1aaaae
1aaaai
#12269
1aaaaj
#12271
0aaaae
1aaaak
1aaaam
#12272
1aaaae
0aaaaj
#12274
0aaaae
1aaaaj
#12276
1aaaaf
0aaaaj
0aaaam
#12277
0aaaak
#12281
1aaaaj
#12282
1aaaae
#12283
0aaaaj
#12285
1aaaah
#12290
0aaaaf
1aaaaj
#12299
0aaaah
#12924
0aaaai
#12929
1aaaai
#12934
0aaaai
#12935
1aaaai
#12936
0aaaai
#12941
1aaaai
#12944
0aaaai
#12949
1aaaai
#12954
0aaaai
#12955
1aaaai
#12956
0aaaai
#12963
1aaaai
#12966
0aaaai
#12981
1aaaai
#12982
1aaaaf
#12986
1aaaah
0aaaai
#12987
1aaaai
#12988
0aaaai
#12993
1aaaai
#12996
0aaaai
#13000
0aaaaf
#13002
1aaaai
#13004
0aaaah
#13007
0aaaai
#13008
1aaaai
#13048
0aaaai
#13050
1aaaai
#13055
0aaaai
#13057
1aaaai
#13059
0aaaai
#13061
1aaaai
#13066
0aaaai
#13073
1aaaai
#13333
0aaaai
#13334
1aaaai
#13558
0aaaae
#13560
1aaaae
#13567
0aaaaj
#13569
1aaaaj
#13717
0aaaai
#14314
0aaaae
#14315
1aaaae
#14331
0aaaaj
#14332
1aaaaj
#15039
0aaaae
#15057
0aaaaj
