examples/04_gemv_aiv/01_fp16_cm_gemv_aiv/sim_result/OPPROF_20250306113833_JOEPNZFYBHYXRDUT/dump/core4_wave.vcd
$date
    Mar 06, 2025       11:38:36
$end

$version
    vcd_version : 1
$end

$timescale
    1 tick
$end

$scope module AiCore $end
$scope module fixp $end
$var wire    1  aaaaa  fixp_l0c_read       $end
$var wire    1  aaaao  fixp_su_busy       $end
$upscope $end
$scope module mte $end
$var wire    1  aaaab  mte3_suv1_busy       $end
$var wire    1  aaaac  mte2_suv1_busy       $end
$var wire    1  aaaak  mte1_su_busy       $end
$var wire    1  aaaal  mte3_su_busy       $end
$var wire    1  aaaam  mte2_su_busy       $end
$var wire    1  aaaan  mte3_suv0_busy       $end
$var wire    1  aaaaq  mte2_suv0_busy       $end
$upscope $end
$scope module cube $end
$var wire    1  aaaad  cube_busy       $end
$upscope $end
$scope module suv0 $end
$var wire    1  aaaae  suv0_busy       $end
$upscope $end
$scope module vec0 $end
$var wire    1  aaaaf  vec0_busy       $end
$var wire    1  aaaap  vec0_ub_write       $end
$upscope $end
$scope module vec1 $end
$var wire    1  aaaag  vec1_ub_write       $end
$var wire    1  aaaah  vec1_busy       $end
$upscope $end
$scope module su $end
$var wire    1  aaaai  su_busy       $end
$upscope $end
$scope module suv1 $end
$var wire    1  aaaaj  suv1_busy       $end
$upscope $end
$upscope $end
$enddefinitions  $end

$comment
    all initial values are dumped below at time : tick = 0
$end
$dumpvars
0aaaaa
0aaaab
0aaaac
0aaaad
0aaaae
0aaaaf
0aaaag
0aaaah
0aaaai
0aaaaj
0aaaak
0aaaal
0aaaam
0aaaan
0aaaao
0aaaap
0aaaaq
$end

#12017
1aaaai
#12022
0aaaai
#12029
1aaaae
#12030
0aaaae
#12032
1aaaae
#12033
1aaaai
1aaaaj
#12034
0aaaaj
#12035
0aaaai
1aaaaj
#12036
1aaaai
#12038
0aaaae
#12039
1aaaae
0aaaaj
#12040
1aaaaf
#12041
1aaaaj
#12042
1aaaak
1aaaam
#12043
0aaaaj
#12044
1aaaaj
#12045
1aaaah
#12047
0aaaam
#12048
0aaaak
#12054
0aaaaf
#12059
0aaaah
#12717
0aaaai
#12722
1aaaai
#12727
0aaaai
#12728
1aaaai
#12729
0aaaai
#12735
1aaaai
#12738
0aaaai
#12744
1aaaai
#12749
0aaaai
#12750
1aaaai
#12751
0aaaai
#12752
1aaaaf
#12756
1aaaai
#12757
1aaaah
#12759
0aaaai
#12764
1aaaai
#12769
0aaaai
#12770
0aaaaf
1aaaai
#12771
0aaaai
#12775
0aaaah
#12777
1aaaai
#12780
0aaaai
#12786
1aaaai
#12791
0aaaai
#12792
1aaaai
#12832
0aaaai
#12834
1aaaai
#12839
0aaaai
#12841
1aaaai
#12843
0aaaai
#12845
1aaaai
#12850
0aaaai
#12857
1aaaai
#13118
0aaaai
#13119
1aaaai
#13327
0aaaaj
#13328
0aaaae
#13329
1aaaaj
#13330
1aaaae
#13502
0aaaai
#14075
0aaaae
#14076
1aaaae
0aaaaj
#14077
1aaaaj
#14798
0aaaae
#14805
0aaaaj
