examples/04_gemv_aiv/01_fp16_cm_gemv_aiv/sim_result/OPPROF_20250306113833_JOEPNZFYBHYXRDUT/dump/core19_wave.vcd
$date
    Mar 06, 2025       11:38:36
$end

$version
    vcd_version : 1
$end

$timescale
    1 tick
$end

$scope module AiCore $end
$scope module fixp $end
$var wire    1  aaaaa  fixp_l0c_read       $end
$var wire    1  aaaao  fixp_su_busy       $end
$upscope $end
$scope module mte $end
$var wire    1  aaaab  mte3_suv1_busy       $end
$var wire    1  aaaac  mte2_suv1_busy       $end
$var wire    1  aaaak  mte1_su_busy       $end
$var wire    1  aaaal  mte3_su_busy       $end
$var wire    1  aaaam  mte2_su_busy       $end
$var wire    1  aaaan  mte3_suv0_busy       $end
$var wire    1  aaaaq  mte2_suv0_busy       $end
$upscope $end
$scope module cube $end
$var wire    1  aaaad  cube_busy       $end
$upscope $end
$scope module suv0 $end
$var wire    1  aaaae  suv0_busy       $end
$upscope $end
$scope module vec0 $end
$var wire    1  aaaaf  vec0_busy       $end
$var wire    1  aaaap  vec0_ub_write       $end
$upscope $end
$scope module vec1 $end
$var wire    1  aaaag  vec1_ub_write       $end
$var wire    1  aaaah  vec1_busy       $end
$upscope $end
$scope module su $end
$var wire    1  aaaai  su_busy       $end
$upscope $end
$scope module suv1 $end
$var wire    1  aaaaj  suv1_busy       $end
$upscope $end
$upscope $end
$enddefinitions  $end

$comment
    all initial values are dumped below at time : tick = 0
$end
$dumpvars
0aaaaa
0aaaab
0aaaac
0aaaad
0aaaae
0aaaaf
0aaaag
0aaaah
0aaaai
0aaaaj
0aaaak
0aaaal
0aaaam
0aaaan
0aaaao
0aaaap
0aaaaq
$end

#12048
1aaaai
#12055
0aaaai
#12056
1aaaai
#12058
0aaaai
#12069
1aaaai
#12070
1aaaae
#12071
1aaaaj
#12072
0aaaaj
#12073
0aaaae
1aaaaj
#12074
1aaaak
1aaaam
#12079
1aaaae
0aaaaj
0aaaam
#12080
0aaaak
#12081
0aaaae
1aaaah
#12088
1aaaae
#12090
0aaaae
#12092
1aaaaf
1aaaaj
#12095
0aaaah
#12102
1aaaae
#12106
0aaaaf
#12728
0aaaai
#12733
1aaaai
#12738
0aaaai
#12739
1aaaai
#12740
0aaaai
#12745
1aaaai
#12748
0aaaai
#12753
1aaaai
#12758
0aaaai
#12759
1aaaai
#12760
0aaaai
#12765
1aaaai
#12766
0aaaai
#12769
1aaaai
#12771
0aaaai
#12786
1aaaai
#12791
1aaaah
0aaaai
#12792
1aaaai
#12793
0aaaai
#12794
1aaaaf
#12798
1aaaai
#12801
0aaaai
#12807
1aaaai
#12809
0aaaah
#12812
0aaaaf
0aaaai
#12813
1aaaai
#12853
0aaaai
#12855
1aaaai
#12860
0aaaai
#12862
1aaaai
#12864
0aaaai
#12866
1aaaai
#12871
0aaaai
#12878
1aaaai
#13139
0aaaai
#13140
1aaaai
#13371
0aaaaj
#13372
0aaaae
#13373
1aaaaj
#13374
1aaaae
#13521
0aaaai
#14135
0aaaaj
#14136
1aaaaj
#14141
0aaaae
#14142
1aaaae
#14857
0aaaaj
#14864
0aaaae
