examples/04_gemv_aiv/01_fp16_cm_gemv_aiv/sim_result/OPPROF_20250306113833_JOEPNZFYBHYXRDUT/dump/core14_wave.vcd
$date
    Mar 06, 2025       11:38:36
$end

$version
    vcd_version : 1
$end

$timescale
    1 tick
$end

$scope module AiCore $end
$scope module fixp $end
$var wire    1  aaaaa  fixp_l0c_read       $end
$var wire    1  aaaao  fixp_su_busy       $end
$upscope $end
$scope module mte $end
$var wire    1  aaaab  mte3_suv1_busy       $end
$var wire    1  aaaac  mte2_suv1_busy       $end
$var wire    1  aaaak  mte1_su_busy       $end
$var wire    1  aaaal  mte3_su_busy       $end
$var wire    1  aaaam  mte2_su_busy       $end
$var wire    1  aaaan  mte3_suv0_busy       $end
$var wire    1  aaaaq  mte2_suv0_busy       $end
$upscope $end
$scope module cube $end
$var wire    1  aaaad  cube_busy       $end
$upscope $end
$scope module suv0 $end
$var wire    1  aaaae  suv0_busy       $end
$upscope $end
$scope module vec0 $end
$var wire    1  aaaaf  vec0_busy       $end
$var wire    1  aaaap  vec0_ub_write       $end
$upscope $end
$scope module vec1 $end
$var wire    1  aaaag  vec1_ub_write       $end
$var wire    1  aaaah  vec1_busy       $end
$upscope $end
$scope module su $end
$var wire    1  aaaai  su_busy       $end
$upscope $end
$scope module suv1 $end
$var wire    1  aaaaj  suv1_busy       $end
$upscope $end
$upscope $end
$enddefinitions  $end

$comment
    all initial values are dumped below at time : tick = 0
$end
$dumpvars
0aaaaa
0aaaab
0aaaac
0aaaad
0aaaae
0aaaaf
0aaaag
0aaaah
0aaaai
0aaaaj
0aaaak
0aaaal
0aaaam
0aaaan
0aaaao
0aaaap
0aaaaq
$end

#12039
1aaaai
#12042
0aaaai
#12059
1aaaai
#12060
1aaaae
#12061
0aaaae
1aaaaj
#12062
0aaaaj
#12063
0aaaai
#12064
1aaaai
#12069
1aaaae
#12070
1aaaak
1aaaam
#12072
1aaaaj
#12073
0aaaae
#12075
0aaaam
#12076
0aaaaj
0aaaak
#12078
1aaaaj
#12080
1aaaae
0aaaaj
#12082
0aaaae
1aaaah
#12083
1aaaae
#12084
1aaaaf
1aaaaj
#12096
0aaaah
#12098
0aaaaf
#12718
0aaaai
#12723
1aaaai
#12728
0aaaai
#12729
1aaaai
#12730
0aaaai
#12735
1aaaai
#12738
0aaaai
#12743
1aaaai
#12748
0aaaai
#12749
1aaaai
#12750
0aaaai
#12756
1aaaai
#12759
0aaaai
#12773
1aaaaf
#12775
1aaaai
#12777
1aaaah
#12780
0aaaai
#12781
1aaaai
#12782
0aaaai
#12787
1aaaai
#12790
0aaaai
#12791
0aaaaf
#12795
0aaaah
#12796
1aaaai
#12801
0aaaai
#12802
1aaaai
#12842
0aaaai
#12844
1aaaai
#12849
0aaaai
#12851
1aaaai
#12853
0aaaai
#12855
1aaaai
#12860
0aaaai
#12867
1aaaai
#13126
0aaaai
#13127
1aaaai
#13340
0aaaae
#13342
1aaaae
#13355
0aaaaj
#13357
1aaaaj
#13510
0aaaai
#14109
0aaaae
#14110
1aaaae
#14111
0aaaaj
#14112
1aaaaj
#14837
0aaaae
#14840
0aaaaj
