examples/04_gemv_aiv/01_fp16_cm_gemv_aiv/sim_result/OPPROF_20250306113833_JOEPNZFYBHYXRDUT/dump/core18_wave.vcd
$date
    Mar 06, 2025       11:38:36
$end

$version
    vcd_version : 1
$end

$timescale
    1 tick
$end

$scope module AiCore $end
$scope module fixp $end
$var wire    1  aaaaa  fixp_l0c_read       $end
$var wire    1  aaaao  fixp_su_busy       $end
$upscope $end
$scope module mte $end
$var wire    1  aaaab  mte3_suv1_busy       $end
$var wire    1  aaaac  mte2_suv1_busy       $end
$var wire    1  aaaak  mte1_su_busy       $end
$var wire    1  aaaal  mte3_su_busy       $end
$var wire    1  aaaam  mte2_su_busy       $end
$var wire    1  aaaan  mte3_suv0_busy       $end
$var wire    1  aaaaq  mte2_suv0_busy       $end
$upscope $end
$scope module cube $end
$var wire    1  aaaad  cube_busy       $end
$upscope $end
$scope module suv0 $end
$var wire    1  aaaae  suv0_busy       $end
$upscope $end
$scope module vec0 $end
$var wire    1  aaaaf  vec0_busy       $end
$var wire    1  aaaap  vec0_ub_write       $end
$upscope $end
$scope module vec1 $end
$var wire    1  aaaag  vec1_ub_write       $end
$var wire    1  aaaah  vec1_busy       $end
$upscope $end
$scope module su $end
$var wire    1  aaaai  su_busy       $end
$upscope $end
$scope module suv1 $end
$var wire    1  aaaaj  suv1_busy       $end
$upscope $end
$upscope $end
$enddefinitions  $end

$comment
    all initial values are dumped below at time : tick = 0
$end
$dumpvars
0aaaaa
0aaaab
0aaaac
0aaaad
0aaaae
0aaaaf
0aaaag
0aaaah
0aaaai
0aaaaj
0aaaak
0aaaal
0aaaam
0aaaan
0aaaao
0aaaap
0aaaaq
$end

#12045
1aaaai
#12052
0aaaai
#12053
1aaaai
#12068
1aaaae
#12069
0aaaae
1aaaaj
1aaaak
1aaaam
#12070
0aaaaj
#12071
1aaaae
#12073
0aaaae
#12074
0aaaam
#12075
1aaaaj
0aaaak
#12077
0aaaaj
#12081
1aaaae
#12082
1aaaaj
#12083
0aaaae
#12084
0aaaaj
#12088
1aaaae
#12090
0aaaae
1aaaaj
#12092
1aaaaf
0aaaaj
#12094
1aaaae
1aaaah
#12099
1aaaaj
#12106
0aaaaf
#12108
0aaaah
#12725
0aaaai
#12730
1aaaai
#12735
0aaaai
#12736
1aaaai
#12737
0aaaai
#12742
1aaaai
#12745
0aaaai
#12750
1aaaai
#12755
0aaaai
#12756
1aaaai
#12757
0aaaai
#12764
1aaaai
#12765
0aaaai
#12770
1aaaai
#12772
0aaaai
#12782
1aaaai
#12786
1aaaaf
#12787
0aaaai
#12788
1aaaai
#12789
0aaaai
#12791
1aaaah
#12794
1aaaai
#12797
0aaaai
#12803
1aaaai
#12804
0aaaaf
#12808
0aaaai
#12809
0aaaah
1aaaai
#12849
0aaaai
#12851
1aaaai
#12856
0aaaai
#12858
1aaaai
#12860
0aaaai
#12862
1aaaai
#12867
0aaaai
#12874
1aaaai
#13131
0aaaai
#13132
1aaaai
#13358
0aaaae
#13360
1aaaae
#13384
0aaaaj
#13386
1aaaaj
#13514
0aaaai
#14110
0aaaaj
#14111
1aaaaj
#14120
0aaaae
#14121
1aaaae
#14836
0aaaaj
#14847
0aaaae
