examples/04_gemv_aiv/01_fp16_cm_gemv_aiv/sim_result/OPPROF_20250306113833_JOEPNZFYBHYXRDUT/dump/core1_wave.vcd
$date
    Mar 06, 2025       11:38:36
$end

$version
    vcd_version : 1
$end

$timescale
    1 tick
$end

$scope module AiCore $end
$scope module fixp $end
$var wire    1  aaaaa  fixp_l0c_read       $end
$var wire    1  aaaao  fixp_su_busy       $end
$upscope $end
$scope module mte $end
$var wire    1  aaaab  mte3_suv1_busy       $end
$var wire    1  aaaac  mte2_suv1_busy       $end
$var wire    1  aaaak  mte1_su_busy       $end
$var wire    1  aaaal  mte3_su_busy       $end
$var wire    1  aaaam  mte2_su_busy       $end
$var wire    1  aaaan  mte3_suv0_busy       $end
$var wire    1  aaaaq  mte2_suv0_busy       $end
$upscope $end
$scope module cube $end
$var wire    1  aaaad  cube_busy       $end
$upscope $end
$scope module suv0 $end
$var wire    1  aaaae  suv0_busy       $end
$upscope $end
$scope module vec0 $end
$var wire    1  aaaaf  vec0_busy       $end
$var wire    1  aaaap  vec0_ub_write       $end
$upscope $end
$scope module vec1 $end
$var wire    1  aaaag  vec1_ub_write       $end
$var wire    1  aaaah  vec1_busy       $end
$upscope $end
$scope module su $end
$var wire    1  aaaai  su_busy       $end
$upscope $end
$scope module suv1 $end
$var wire    1  aaaaj  suv1_busy       $end
$upscope $end
$upscope $end
$enddefinitions  $end

$comment
    all initial values are dumped below at time : tick = 0
$end
$dumpvars
0aaaaa
0aaaab
0aaaac
0aaaad
0aaaae
0aaaaf
0aaaag
0aaaah
0aaaai
0aaaaj
0aaaak
0aaaal
0aaaam
0aaaan
0aaaao
0aaaap
0aaaaq
$end

#12012
1aaaai
#12015
0aaaai
#12017
1aaaae
#12018
0aaaae
#12019
1aaaai
#12020
1aaaae
1aaaaj
#12023
0aaaai
#12024
0aaaae
1aaaai
#12026
1aaaae
#12027
0aaaaj
#12028
0aaaae
1aaaaj
#12029
1aaaae
1aaaah
#12030
1aaaaf
1aaaak
1aaaam
#12035
0aaaam
#12036
0aaaak
#12043
0aaaah
#12044
0aaaaf
#12705
0aaaai
#12706
1aaaai
#12709
0aaaai
#12714
1aaaai
#12719
0aaaai
#12720
1aaaai
#12721
0aaaai
#12726
1aaaai
#12727
0aaaai
#12729
1aaaai
#12731
0aaaai
#12737
1aaaai
#12742
0aaaai
#12743
1aaaai
#12744
0aaaai
#12745
1aaaah
#12748
1aaaaf
#12750
1aaaai
#12753
0aaaai
#12758
1aaaai
#12763
0aaaah
0aaaai
#12764
1aaaai
#12765
0aaaai
#12766
0aaaaf
#12770
1aaaai
#12771
0aaaai
#12773
1aaaai
#12775
0aaaai
#12783
1aaaai
#12788
0aaaai
#12789
1aaaai
#12829
0aaaai
#12831
1aaaai
#12836
0aaaai
#12838
1aaaai
#12840
0aaaai
#12842
1aaaai
#12847
0aaaai
#12854
1aaaai
#13112
0aaaai
#13113
1aaaai
#13327
0aaaae
#13328
0aaaaj
#13329
1aaaae
#13330
1aaaaj
#13494
0aaaai
#13752
1aaaaq
#13753
1aaaac
#13938
0aaaae
#13940
1aaaae
#13941
0aaaae
#13942
1aaaae
0aaaaj
#13944
1aaaaj
#13945
0aaaae
0aaaaj
#13946
1aaaaj
#13949
0aaaaj
#13951
1aaaae
#13955
1aaaaj
#13961
0aaaae
#13962
1aaaae
#13965
0aaaae
0aaaaj
#13966
1aaaaj
#13969
0aaaaj
#13971
1aaaae
#13975
1aaaaj
#13984
0aaaae
#13985
1aaaae
#13986
0aaaae
#13987
1aaaae
#13988
0aaaaj
#13989
1aaaaj
#13990
0aaaaj
#13991
1aaaaj
#13992
0aaaae
#13993
1aaaae
#13996
0aaaaj
#13997
1aaaaj
#14014
0aaaae
#14015
1aaaae
#14018
0aaaaj
#14019
1aaaaj
#14075
0aaaae
#14077
1aaaae
#14078
0aaaae
#14079
1aaaae
0aaaaj
#14081
1aaaaj
#14082
0aaaae
0aaaaj
#14083
1aaaaj
#14086
0aaaaj
#14088
1aaaae
#14092
1aaaaj
#14094
0aaaae
#14098
0aaaaj
#14100
1aaaae
#14104
1aaaaj
#14119
0aaaae
#14123
0aaaaj
#14125
1aaaae
#14129
1aaaaj
#14130
0aaaae
#14133
1aaaae
#14134
0aaaaj
#14137
1aaaaj
#14138
0aaaae
#14142
0aaaaj
#14144
1aaaae
#14147
0aaaae
#14148
1aaaah
1aaaaj
#14149
1aaaae
#14150
0aaaae
1aaaaf
#14151
1aaaae
0aaaaj
#14153
1aaaaj
#14154
0aaaae
0aaaaj
#14155
1aaaaj
#14158
0aaaaj
#14160
1aaaae
#14161
0aaaae
#14165
1aaaaj
#14166
1aaaae
#14167
1aaaag
#14168
0aaaag
#14169
1aaaap
#14170
0aaaap
#14171
0aaaae
0aaaaj
#14172
0aaaah
#14173
1aaaae
#14174
0aaaaf
#14177
1aaaaj
#14189
0aaaae
#14190
1aaaae
#14193
0aaaaj
#14194
1aaaaj
#14208
0aaaae
#14209
1aaaae
#14212
0aaaaj
#14213
1aaaaj
#14216
0aaaae
#14217
1aaaae
#14218
0aaaae
#14219
1aaaae
#14220
0aaaaj
#14221
1aaaaj
#14222
0aaaaj
#14223
1aaaaj
#14229
0aaaae
#14230
1aaaae
#14233
0aaaaj
#14234
1aaaaj
#14241
0aaaae
#14245
0aaaaj
#14247
1aaaae
#14251
1aaaaj
#14255
0aaaae
#14259
0aaaaj
#14505
1aaaaf
#14511
1aaaah
#14524
1aaaap
#14525
0aaaap
#14527
0aaaaf
#14530
1aaaag
#14531
0aaaag
#14533
0aaaah
#15099
1aaaah
#15102
1aaaaf
#15110
1aaaag
#15113
1aaaap
#15118
0aaaag
#15120
0aaaah
#15121
0aaaap
#15123
0aaaaf
#15124
1aaaaj
#15127
1aaaae
#15136
0aaaaj
#15139
0aaaae
1aaaaj
#15141
0aaaaj
#15142
1aaaae
1aaaah
#15144
0aaaae
#15145
1aaaaf
#15166
1aaaag
#15168
0aaaag
#15169
1aaaap
#15170
0aaaah
#15171
0aaaap
#15173
0aaaaf
1aaaaj
#15176
1aaaae
#15185
0aaaaj
#15188
0aaaae
1aaaaj
#15190
0aaaaj
#15191
1aaaae
1aaaah
#15193
0aaaae
#15194
1aaaaf
#15215
1aaaag
#15217
0aaaag
#15218
1aaaap
#15219
0aaaah
#15220
0aaaap
#15222
0aaaaf
1aaaaj
#15225
1aaaae
#15234
0aaaaj
#15237
0aaaae
1aaaaj
#15239
0aaaaj
#15240
1aaaae
1aaaah
#15242
0aaaae
#15243
1aaaaf
#15264
1aaaag
#15266
0aaaag
#15267
1aaaap
#15268
0aaaah
#15269
0aaaap
#15271
0aaaaf
1aaaaj
#15274
1aaaae
#15282
0aaaaj
#15285
1aaaaj
#15286
0aaaae
#15287
0aaaaj
#15288
1aaaah
#15289
1aaaae
#15291
0aaaae
#15292
1aaaaf
#15312
1aaaag
#15314
0aaaag
#15316
0aaaah
1aaaap
#15318
0aaaap
#15319
1aaaaj
#15320
0aaaaf
#15323
1aaaae
#15331
0aaaaj
#15334
1aaaaj
#15335
0aaaae
#15336
0aaaaj
#15337
1aaaah
#15338
1aaaae
#15340
0aaaae
#15341
1aaaaf
#15361
1aaaag
#15363
0aaaag
#15365
0aaaah
1aaaap
#15367
0aaaap
#15368
1aaaaj
#15369
0aaaaf
#15372
1aaaae
#15380
0aaaaj
#15383
1aaaaj
#15384
0aaaae
#15385
0aaaaj
#15386
1aaaah
#15387
1aaaae
#15389
0aaaae
#15390
1aaaaf
#15410
1aaaag
#15412
0aaaag
#15414
0aaaah
1aaaap
#15416
0aaaap
#15417
1aaaaj
#15418
0aaaaf
#15421
1aaaae
#15429
0aaaaj
#15432
1aaaaj
#15433
0aaaae
#15434
0aaaaj
#15435
1aaaah
#15436
1aaaae
#15438
0aaaae
#15439
1aaaaf
#15459
1aaaag
#15461
0aaaag
#15463
0aaaah
1aaaap
#15465
0aaaap
#15466
1aaaaj
#15467
0aaaaf
#15470
1aaaae
#15478
0aaaaj
#15481
1aaaaj
#15482
0aaaae
#15483
0aaaaj
#15484
1aaaah
#15485
1aaaae
#15487
0aaaae
#15488
1aaaaf
#15508
1aaaag
#15510
0aaaag
#15512
0aaaah
1aaaap
#15514
0aaaap
#15515
1aaaaj
#15516
0aaaaf
#15519
1aaaae
#15527
0aaaaj
#15530
1aaaaj
#15531
0aaaae
#15532
0aaaaj
#15533
1aaaah
#15534
1aaaae
#15536
0aaaae
#15537
1aaaaf
#15557
1aaaag
#15559
0aaaag
#15561
0aaaah
1aaaap
#15563
0aaaap
#15564
1aaaaj
#15565
0aaaaf
#15568
1aaaae
#15576
0aaaaj
#15579
1aaaaj
#15580
0aaaae
#15581
0aaaaj
#15582
1aaaah
#15583
1aaaae
#15585
0aaaae
#15586
1aaaaf
#15606
1aaaag
#15608
0aaaag
#15610
0aaaah
1aaaap
#15612
0aaaap
#15613
1aaaaj
#15614
0aaaaf
#15617
1aaaae
#15625
0aaaaj
#15628
1aaaaj
#15629
0aaaae
#15630
0aaaaj
#15631
1aaaah
#15632
1aaaae
#15634
0aaaae
#15635
1aaaaf
#15655
1aaaag
#15657
0aaaag
#15659
0aaaah
1aaaap
#15661
0aaaap
#15662
1aaaaj
#15663
0aaaaf
#15666
1aaaae
#15674
0aaaaj
#15677
1aaaaj
#15678
0aaaae
#15679
0aaaaj
#15680
1aaaah
#15681
1aaaae
#15683
0aaaae
#15684
1aaaaf
#15704
1aaaag
#15706
0aaaag
#15708
0aaaah
1aaaap
#15710
0aaaap
#15711
1aaaaj
#15712
0aaaaf
#15715
1aaaae
#15723
0aaaaj
#15726
1aaaaj
#15727
0aaaae
#15728
0aaaaj
#15729
1aaaah
#15730
1aaaae
#15732
0aaaae
#15733
1aaaaf
#15753
1aaaag
#15755
0aaaag
#15757
0aaaah
1aaaap
#15759
0aaaap
#15760
1aaaaj
#15761
0aaaaf
#15764
1aaaae
#15772
0aaaaj
#15775
1aaaaj
#15776
0aaaae
#15777
0aaaaj
#15778
1aaaah
#15779
1aaaae
#15781
0aaaae
#15782
1aaaaf
#15802
1aaaag
#15804
0aaaag
#15806
0aaaah
1aaaap
#15808
0aaaap
#15809
1aaaaj
#15810
0aaaaf
#15813
1aaaae
#15821
0aaaaj
#15824
1aaaaj
#15825
0aaaae
#15826
0aaaaj
#15827
1aaaah
#15828
1aaaae
#15830
0aaaae
#15831
1aaaaf
#15851
1aaaag
#15853
0aaaag
#15855
0aaaah
1aaaap
#15857
0aaaap
#15858
1aaaaj
#15859
0aaaaf
#15862
1aaaae
#15864
0aaaac
#15868
0aaaaq
#15870
0aaaaj
#15873
1aaaaj
#15874
0aaaae
#15875
0aaaaj
#15876
1aaaah
#15877
1aaaae
#15879
0aaaae
#15880
1aaaaf
#15900
1aaaag
#15902
0aaaag
#15904
0aaaah
1aaaap
#15906
0aaaap
#15907
1aaaaj
#15908
0aaaaf
#15911
1aaaae
#15919
0aaaaj
#15922
1aaaaj
#15923
0aaaae
#15924
0aaaaj
#15925
1aaaah
#15926
1aaaae
#15928
0aaaae
#15929
1aaaaf
#15949
1aaaag
#15951
0aaaag
#15953
0aaaah
1aaaap
#15955
0aaaap
#15956
1aaaaj
#15957
0aaaaf
#15960
1aaaae
#15968
0aaaaj
#15971
1aaaaj
#15972
0aaaae
#15973
0aaaaj
#15974
1aaaah
#15975
1aaaae
#15977
0aaaae
#15978
1aaaaf
#15998
1aaaag
#16000
0aaaag
#16002
0aaaah
1aaaap
#16004
0aaaap
#16005
1aaaaj
#16006
0aaaaf
#16009
1aaaae
#16017
0aaaaj
#16020
1aaaaj
#16021
0aaaae
#16022
0aaaaj
#16023
1aaaah
#16024
1aaaae
#16026
0aaaae
#16027
1aaaaf
#16047
1aaaag
#16049
0aaaag
#16051
0aaaah
1aaaap
#16053
0aaaap
#16054
1aaaaj
#16055
0aaaaf
#16058
1aaaae
#16066
0aaaaj
#16069
1aaaaj
#16070
0aaaae
#16071
0aaaaj
#16072
1aaaah
#16073
1aaaae
#16075
0aaaae
#16076
1aaaaf
#16096
1aaaag
#16098
0aaaag
#16100
0aaaah
1aaaap
#16102
0aaaap
#16103
1aaaaj
#16104
0aaaaf
#16107
1aaaae
#16115
0aaaaj
#16118
1aaaaj
#16119
0aaaae
#16120
0aaaaj
#16121
1aaaah
#16122
1aaaae
#16124
0aaaae
#16125
1aaaaf
#16145
1aaaag
#16147
0aaaag
#16149
0aaaah
1aaaap
#16151
0aaaap
#16152
1aaaaj
#16153
0aaaaf
#16156
1aaaae
#16164
0aaaaj
#16167
1aaaaj
#16168
0aaaae
#16169
0aaaaj
#16170
1aaaah
#16171
1aaaae
#16173
0aaaae
#16174
1aaaaf
#16194
1aaaag
#16196
0aaaag
#16198
0aaaah
1aaaap
#16200
0aaaap
#16201
1aaaaj
#16202
0aaaaf
#16205
1aaaae
#16213
0aaaaj
#16216
1aaaaj
#16217
0aaaae
#16218
0aaaaj
#16219
1aaaah
#16220
1aaaae
#16222
0aaaae
#16223
1aaaaf
#16243
1aaaag
#16245
0aaaag
#16247
0aaaah
1aaaap
#16249
0aaaap
#16250
1aaaaj
#16251
0aaaaf
#16254
1aaaae
#16262
0aaaaj
#16265
1aaaaj
#16266
0aaaae
#16267
0aaaaj
#16268
1aaaah
#16269
1aaaae
#16271
0aaaae
#16272
1aaaaf
#16292
1aaaag
#16294
0aaaag
#16296
0aaaah
1aaaap
#16298
0aaaap
#16299
1aaaaj
#16300
0aaaaf
#16303
1aaaae
#16311
0aaaaj
#16314
1aaaaj
#16315
0aaaae
#16316
0aaaaj
#16317
1aaaah
#16318
1aaaae
#16320
0aaaae
#16321
1aaaaf
#16341
1aaaag
#16343
0aaaag
#16345
0aaaah
1aaaap
#16347
0aaaap
#16348
1aaaaj
#16349
0aaaaf
#16352
1aaaae
#16360
0aaaaj
#16363
1aaaaj
#16364
0aaaae
#16365
0aaaaj
#16366
1aaaah
#16367
1aaaae
#16369
0aaaae
#16370
1aaaaf
#16390
1aaaag
#16392
0aaaag
#16394
0aaaah
1aaaap
#16396
0aaaap
#16397
1aaaaj
#16398
0aaaaf
#16401
1aaaae
#16409
0aaaaj
#16412
1aaaaj
#16413
0aaaae
#16414
0aaaaj
#16415
1aaaah
#16416
1aaaae
#16418
0aaaae
#16419
1aaaaf
#16439
1aaaag
#16441
0aaaag
#16443
0aaaah
1aaaap
#16445
0aaaap
#16446
1aaaaj
#16447
0aaaaf
#16450
1aaaae
#16458
0aaaaj
#16461
1aaaaj
#16462
0aaaae
#16463
0aaaaj
#16464
1aaaah
#16465
1aaaae
#16467
0aaaae
#16468
1aaaaf
#16488
1aaaag
#16490
0aaaag
#16492
0aaaah
1aaaap
#16494
0aaaap
#16495
1aaaaj
#16496
0aaaaf
#16499
1aaaae
#16507
0aaaaj
#16510
1aaaaj
#16511
0aaaae
#16512
0aaaaj
#16513
1aaaah
#16514
1aaaae
#16516
0aaaae
#16517
1aaaaf
#16537
1aaaag
#16539
0aaaag
#16541
0aaaah
1aaaap
#16543
0aaaap
#16544
1aaaaj
#16545
0aaaaf
#16548
1aaaae
#16556
0aaaaj
#16559
1aaaaj
#16560
0aaaae
#16561
0aaaaj
#16562
1aaaah
#16563
1aaaae
#16565
0aaaae
#16566
1aaaaf
#16586
1aaaag
#16588
0aaaag
#16590
0aaaah
1aaaap
#16592
0aaaap
#16593
1aaaaj
#16594
0aaaaf
#16597
1aaaae
#16605
0aaaaj
#16608
1aaaaj
#16609
0aaaae
#16610
0aaaaj
#16611
1aaaah
#16612
1aaaae
#16614
0aaaae
#16615
1aaaaf
#16635
1aaaag
#16637
0aaaag
#16639
0aaaah
1aaaap
#16641
0aaaap
#16642
1aaaaj
#16643
0aaaaf
#16646
1aaaae
#16654
0aaaaj
#16657
1aaaaj
#16658
0aaaae
#16659
0aaaaj
#16660
1aaaah
#16661
1aaaae
#16662
1aaaaj
#16663
0aaaae
#16664
1aaaaf
#16665
0aaaaj
#16666
1aaaae
#16669
0aaaae
#16671
1aaaaj
#16673
0aaaaj
#16675
1aaaae
#16677
0aaaae
#16684
1aaaag
#16686
0aaaag
#16688
0aaaah
1aaaap
#16690
0aaaap
#16691
1aaaaj
#16692
0aaaaf
#16695
1aaaae
#16696
1aaaah
0aaaaj
#16697
1aaaaj
#16700
0aaaae
1aaaaf
#16701
1aaaae
0aaaaj
#16702
1aaaaj
#16705
0aaaae
#16706
1aaaae
#16714
1aaaag
#16715
0aaaag
#16717
0aaaah
#16718
1aaaap
#16719
0aaaap
#16721
0aaaaf
1aaaah
#16725
1aaaaf
#16739
1aaaag
#16740
0aaaag
#16741
1aaaag
#16742
0aaaag
#16743
1aaaag
1aaaap
#16744
0aaaag
0aaaap
#16745
1aaaag
1aaaap
#16746
0aaaag
0aaaap
#16747
1aaaap
#16748
0aaaah
0aaaap
#16749
1aaaap
#16750
0aaaap
#16752
0aaaaf
#16783
0aaaaj
#16785
1aaaaj
#16786
0aaaaj
#16787
0aaaae
1aaaaj
#16789
1aaaae
#16790
0aaaae
0aaaaj
#16791
1aaaae
#16794
0aaaae
#16796
1aaaaj
#16799
1aaaac
#16800
1aaaae
#16802
0aaaaj
#16803
1aaaaq
#16806
0aaaae
#16808
1aaaaj
#16812
1aaaae
#16827
0aaaaj
#16831
0aaaae
#16833
1aaaaj
#16837
1aaaae
#16838
0aaaaj
#16841
1aaaaj
#16842
0aaaae
#16845
1aaaae
#16846
0aaaaj
#16850
0aaaae
#16852
1aaaaj
#16855
0aaaaj
#16856
1aaaae
#16857
1aaaaj
#16858
0aaaaj
#16859
0aaaae
1aaaaj
#16861
1aaaae
#16862
0aaaae
0aaaaj
#16863
1aaaae
#16866
0aaaae
#16868
1aaaaj
#16872
1aaaae
#16874
0aaaaj
#16875
1aaaaj
#16878
0aaaae
#16879
1aaaae
#16891
0aaaaj
#16892
1aaaaj
#16895
0aaaae
#16896
1aaaae
#16905
1aaaah
#16909
1aaaaf
#16910
0aaaaj
#16911
1aaaaj
#16914
0aaaae
#16915
1aaaae
#16918
0aaaaj
#16919
1aaaaj
#16920
0aaaaj
#16921
1aaaaj
#16922
0aaaae
#16923
1aaaae
#16924
0aaaae
#16925
1aaaae
#16927
1aaaag
#16928
0aaaag
#16930
0aaaah
#16931
0aaaaj
1aaaap
#16932
1aaaaj
0aaaap
#16934
0aaaaf
#16935
0aaaae
#16936
1aaaae
#16941
1aaaah
#16943
0aaaaj
#16945
1aaaaf
#16947
0aaaae
#16949
1aaaaj
#16953
1aaaae
1aaaag
#16957
0aaaaj
1aaaap
#16961
0aaaae
0aaaag
#16963
0aaaah
#16965
0aaaap
#16967
0aaaaf
1aaaaj
#16971
1aaaae
#16979
0aaaaj
#16982
1aaaaj
#16983
0aaaae
#16984
0aaaaj
#16985
1aaaah
#16986
1aaaae
#16988
0aaaae
#16989
1aaaaf
#17009
1aaaag
#17011
0aaaag
#17013
0aaaah
1aaaap
#17015
0aaaap
#17016
1aaaaj
#17017
0aaaaf
#17020
1aaaae
#17028
0aaaaj
#17031
1aaaaj
#17032
0aaaae
#17033
0aaaaj
#17034
1aaaah
#17035
1aaaae
#17037
0aaaae
#17038
1aaaaf
#17058
1aaaag
#17060
0aaaag
#17062
0aaaah
1aaaap
#17064
0aaaap
#17065
1aaaaj
#17066
0aaaaf
#17069
1aaaae
#17077
0aaaaj
#17080
1aaaaj
#17081
0aaaae
#17082
0aaaaj
#17083
1aaaah
#17084
1aaaae
#17086
0aaaae
#17087
1aaaaf
#17107
1aaaag
#17109
0aaaag
#17111
0aaaah
1aaaap
#17113
0aaaap
#17114
1aaaaj
#17115
0aaaaf
#17118
1aaaae
#17126
0aaaaj
#17129
1aaaaj
#17130
0aaaae
#17131
0aaaaj
#17132
1aaaah
#17133
1aaaae
#17135
0aaaae
#17136
1aaaaf
#17156
1aaaag
#17158
0aaaag
#17160
0aaaah
1aaaap
#17162
0aaaap
#17163
1aaaaj
#17164
0aaaaf
#17167
1aaaae
#17171
0aaaaj
#17174
1aaaaj
#17176
0aaaae
0aaaaj
#17177
1aaaah
#17179
1aaaae
#17181
0aaaae
#17182
1aaaaf
#17201
1aaaag
#17203
0aaaag
#17205
0aaaah
#17206
1aaaap
#17208
1aaaaj
0aaaap
#17210
0aaaaf
#17213
1aaaae
#17220
0aaaaj
#17223
1aaaaj
#17225
0aaaae
0aaaaj
#17226
1aaaah
#17228
1aaaae
#17230
0aaaae
#17231
1aaaaf
#17250
1aaaag
#17252
0aaaag
#17254
0aaaah
#17255
1aaaap
#17257
1aaaaj
0aaaap
#17259
0aaaaf
#17262
1aaaae
#17269
0aaaaj
#17272
1aaaaj
#17274
0aaaae
0aaaaj
#17275
1aaaah
#17277
1aaaae
#17279
0aaaae
#17280
1aaaaf
#17299
1aaaag
#17301
0aaaag
#17303
0aaaah
#17304
1aaaap
#17306
1aaaaj
0aaaap
#17308
0aaaaf
#17311
1aaaae
#17318
0aaaaj
#17321
1aaaaj
#17323
0aaaae
0aaaaj
#17324
1aaaah
#17326
1aaaae
#17328
0aaaae
#17329
1aaaaf
#17348
1aaaag
#17350
0aaaag
#17352
0aaaah
#17353
1aaaap
#17355
1aaaaj
0aaaap
#17357
0aaaaf
#17360
1aaaae
#17367
0aaaaj
#17370
1aaaaj
#17372
0aaaae
0aaaaj
#17373
1aaaah
#17375
1aaaae
#17377
0aaaae
#17378
1aaaaf
#17397
1aaaag
#17399
0aaaag
#17401
0aaaah
#17402
1aaaap
#17404
1aaaaj
0aaaap
#17406
0aaaaf
#17409
1aaaae
#17416
0aaaaj
#17419
1aaaaj
#17421
0aaaae
0aaaaj
#17422
1aaaah
#17424
1aaaae
#17426
0aaaae
#17427
1aaaaf
#17446
1aaaag
#17448
0aaaag
#17450
0aaaah
#17451
1aaaap
#17453
1aaaaj
0aaaap
#17455
0aaaaf
#17458
1aaaae
#17465
0aaaaj
#17468
1aaaaj
#17470
0aaaae
0aaaaj
#17471
1aaaah
#17473
1aaaae
#17475
0aaaae
#17476
1aaaaf
#17495
1aaaag
#17497
0aaaag
#17499
0aaaah
#17500
1aaaap
#17502
1aaaaj
0aaaap
#17504
0aaaaf
#17507
1aaaae
#17514
0aaaaj
#17517
1aaaaj
#17519
0aaaae
0aaaaj
#17520
1aaaah
#17522
1aaaae
#17524
0aaaae
#17525
1aaaaf
#17544
1aaaag
#17546
0aaaag
#17548
0aaaah
#17549
1aaaap
#17551
1aaaaj
0aaaap
#17553
0aaaaf
#17556
1aaaae
#17563
0aaaaj
#17566
1aaaaj
#17568
0aaaae
0aaaaj
#17569
1aaaah
#17571
1aaaae
#17573
0aaaae
#17574
1aaaaf
#17593
1aaaag
#17595
0aaaag
#17597
0aaaah
#17598
1aaaap
#17600
1aaaaj
0aaaap
#17602
0aaaaf
#17605
1aaaae
#17612
0aaaaj
#17615
1aaaaj
#17617
0aaaae
0aaaaj
#17618
1aaaah
#17620
1aaaae
#17622
0aaaae
#17623
1aaaaf
#17642
1aaaag
#17644
0aaaag
#17646
0aaaah
#17647
1aaaap
#17649
1aaaaj
0aaaap
#17651
0aaaaf
#17654
1aaaae
#17661
0aaaaj
#17664
1aaaaj
#17666
0aaaae
0aaaaj
#17667
1aaaah
#17669
1aaaae
#17671
0aaaae
#17672
1aaaaf
#17691
1aaaag
#17693
0aaaag
#17695
0aaaah
#17696
1aaaap
#17698
1aaaaj
0aaaap
#17700
0aaaaf
#17703
1aaaae
#17710
0aaaaj
#17713
1aaaaj
#17715
0aaaae
0aaaaj
#17716
1aaaah
#17718
1aaaae
#17720
0aaaae
#17721
1aaaaf
#17740
1aaaag
#17742
0aaaag
#17744
0aaaah
#17745
1aaaap
#17747
1aaaaj
0aaaap
#17749
0aaaaf
#17752
1aaaae
#17759
0aaaaj
#17761
0aaaae
#17762
1aaaaj
#17764
1aaaae
0aaaaj
#17765
1aaaah
#17766
0aaaae
#17767
1aaaaf
#17789
1aaaag
#17791
0aaaag
1aaaap
#17792
0aaaac
#17793
0aaaah
0aaaap
#17795
0aaaaf
#17796
1aaaaj
#17797
0aaaaq
#17798
1aaaae
#17808
0aaaaj
#17810
0aaaae
#17811
1aaaaj
#17813
1aaaae
0aaaaj
#17814
1aaaah
#17815
0aaaae
#17816
1aaaaf
#17838
1aaaag
#17840
0aaaag
1aaaap
#17842
0aaaah
0aaaap
#17844
0aaaaf
#17845
1aaaaj
#17847
1aaaae
#17857
0aaaaj
#17859
0aaaae
#17860
1aaaaj
#17862
1aaaae
0aaaaj
#17863
1aaaah
#17864
0aaaae
#17865
1aaaaf
#17887
1aaaag
#17889
0aaaag
1aaaap
#17891
0aaaah
0aaaap
#17893
0aaaaf
#17894
1aaaaj
#17896
1aaaae
#17906
0aaaaj
#17908
0aaaae
#17909
1aaaaj
#17911
1aaaae
0aaaaj
#17912
1aaaah
#17913
0aaaae
#17914
1aaaaf
#17936
1aaaag
#17938
0aaaag
1aaaap
#17940
0aaaah
0aaaap
#17942
0aaaaf
#17943
1aaaaj
#17945
1aaaae
#17955
0aaaaj
#17957
0aaaae
#17958
1aaaaj
#17960
1aaaae
0aaaaj
#17961
1aaaah
#17962
0aaaae
#17963
1aaaaf
#17985
1aaaag
#17987
0aaaag
1aaaap
#17989
0aaaah
0aaaap
#17991
0aaaaf
#17992
1aaaaj
#17994
1aaaae
#18004
0aaaaj
#18006
0aaaae
#18007
1aaaaj
#18009
1aaaae
0aaaaj
#18010
1aaaah
#18011
0aaaae
#18012
1aaaaf
#18034
1aaaag
#18036
0aaaag
1aaaap
#18038
0aaaah
0aaaap
#18040
0aaaaf
#18041
1aaaaj
#18043
1aaaae
#18053
0aaaaj
#18055
0aaaae
#18056
1aaaaj
#18058
1aaaae
0aaaaj
#18059
1aaaah
#18060
0aaaae
#18061
1aaaaf
#18083
1aaaag
#18085
0aaaag
1aaaap
#18087
0aaaah
0aaaap
#18089
0aaaaf
#18090
1aaaaj
#18092
1aaaae
#18102
0aaaaj
#18104
0aaaae
#18105
1aaaaj
#18107
1aaaae
0aaaaj
#18108
1aaaah
#18109
0aaaae
#18110
1aaaaf
#18132
1aaaag
#18134
0aaaag
1aaaap
#18136
0aaaah
0aaaap
#18138
0aaaaf
#18139
1aaaaj
#18141
1aaaae
#18151
0aaaaj
#18153
0aaaae
#18154
1aaaaj
#18156
1aaaae
0aaaaj
#18157
1aaaah
#18158
0aaaae
#18159
1aaaaf
#18181
1aaaag
#18183
0aaaag
1aaaap
#18185
0aaaah
0aaaap
#18187
0aaaaf
#18188
1aaaaj
#18190
1aaaae
#18200
0aaaaj
#18202
0aaaae
#18203
1aaaaj
#18205
1aaaae
0aaaaj
#18206
1aaaah
#18207
0aaaae
#18208
1aaaaf
#18230
1aaaag
#18232
0aaaag
1aaaap
#18234
0aaaah
0aaaap
#18236
0aaaaf
#18237
1aaaaj
#18239
1aaaae
#18249
0aaaaj
#18251
0aaaae
#18252
1aaaaj
#18254
1aaaae
0aaaaj
#18255
1aaaah
#18256
0aaaae
#18257
1aaaaf
#18279
1aaaag
#18281
0aaaag
1aaaap
#18283
0aaaah
0aaaap
#18285
0aaaaf
#18286
1aaaaj
#18288
1aaaae
#18298
0aaaaj
#18300
0aaaae
#18301
1aaaaj
#18303
1aaaae
0aaaaj
#18304
1aaaah
#18305
0aaaae
#18306
1aaaaf
#18328
1aaaag
#18330
0aaaag
1aaaap
#18332
0aaaah
0aaaap
#18334
0aaaaf
#18335
1aaaaj
#18337
1aaaae
#18347
0aaaaj
#18349
0aaaae
#18350
1aaaaj
#18352
1aaaae
0aaaaj
#18353
1aaaah
#18354
0aaaae
#18355
1aaaaf
#18377
1aaaag
#18379
0aaaag
1aaaap
#18381
0aaaah
0aaaap
#18383
0aaaaf
#18384
1aaaaj
#18386
1aaaae
#18396
0aaaaj
#18398
0aaaae
#18399
1aaaaj
#18401
1aaaae
0aaaaj
#18402
1aaaah
#18403
0aaaae
#18404
1aaaaf
#18426
1aaaag
#18428
0aaaag
1aaaap
#18430
0aaaah
0aaaap
#18432
0aaaaf
#18433
1aaaaj
#18435
1aaaae
#18445
0aaaaj
#18447
0aaaae
#18448
1aaaaj
#18450
1aaaae
0aaaaj
#18451
1aaaah
#18452
0aaaae
#18453
1aaaaf
#18475
1aaaag
#18477
0aaaag
1aaaap
#18479
0aaaah
0aaaap
#18481
0aaaaf
#18482
1aaaaj
#18484
1aaaae
#18494
0aaaaj
#18496
0aaaae
#18497
1aaaaj
#18499
1aaaae
0aaaaj
#18500
1aaaah
#18501
0aaaae
#18502
1aaaaf
1aaaaj
#18504
1aaaae
#18505
0aaaaj
#18507
0aaaae
#18511
1aaaaj
#18513
1aaaae
0aaaaj
#18515
0aaaae
#18524
1aaaag
#18526
0aaaag
1aaaap
#18528
0aaaah
0aaaap
#18530
0aaaaf
#18531
1aaaaj
#18533
1aaaae
#18536
1aaaah
0aaaaj
#18537
1aaaaj
#18538
0aaaae
1aaaaf
#18539
1aaaae
#18541
0aaaaj
#18542
1aaaaj
#18543
0aaaae
#18544
1aaaae
#18554
1aaaag
#18555
0aaaag
#18556
1aaaap
#18557
0aaaah
0aaaap
#18559
0aaaaf
#18561
1aaaah
#18563
1aaaaf
#18579
1aaaag
#18580
0aaaag
#18581
1aaaag
1aaaap
#18582
0aaaag
0aaaap
#18583
1aaaag
1aaaap
#18584
0aaaag
0aaaap
#18585
1aaaag
1aaaap
#18586
0aaaag
0aaaap
#18587
1aaaap
#18588
0aaaah
0aaaap
#18590
0aaaaf
#18623
0aaaaj
#18625
0aaaae
1aaaaj
#18626
0aaaaj
#18627
1aaaae
1aaaaj
#18628
0aaaae
#18629
1aaaae
#18630
0aaaaj
#18632
0aaaae
#18636
1aaaaj
#18638
1aaaae
#18639
1aaaac
#18641
1aaaaq
#18642
0aaaaj
#18644
0aaaae
