examples/04_gemv_aiv/01_fp16_cm_gemv_aiv/sim_result/OPPROF_20250306113833_JOEPNZFYBHYXRDUT/dump/core6_wave.vcd
$date
    Mar 06, 2025       11:38:36
$end

$version
    vcd_version : 1
$end

$timescale
    1 tick
$end

$scope module AiCore $end
$scope module fixp $end
$var wire    1  aaaaa  fixp_l0c_read       $end
$var wire    1  aaaao  fixp_su_busy       $end
$upscope $end
$scope module mte $end
$var wire    1  aaaab  mte3_suv1_busy       $end
$var wire    1  aaaac  mte2_suv1_busy       $end
$var wire    1  aaaak  mte1_su_busy       $end
$var wire    1  aaaal  mte3_su_busy       $end
$var wire    1  aaaam  mte2_su_busy       $end
$var wire    1  aaaan  mte3_suv0_busy       $end
$var wire    1  aaaaq  mte2_suv0_busy       $end
$upscope $end
$scope module cube $end
$var wire    1  aaaad  cube_busy       $end
$upscope $end
$scope module suv0 $end
$var wire    1  aaaae  suv0_busy       $end
$upscope $end
$scope module vec0 $end
$var wire    1  aaaaf  vec0_busy       $end
$var wire    1  aaaap  vec0_ub_write       $end
$upscope $end
$scope module vec1 $end
$var wire    1  aaaag  vec1_ub_write       $end
$var wire    1  aaaah  vec1_busy       $end
$upscope $end
$scope module su $end
$var wire    1  aaaai  su_busy       $end
$upscope $end
$scope module suv1 $end
$var wire    1  aaaaj  suv1_busy       $end
$upscope $end
$upscope $end
$enddefinitions  $end

$comment
    all initial values are dumped below at time : tick = 0
$end
$dumpvars
0aaaaa
0aaaab
0aaaac
0aaaad
0aaaae
0aaaaf
0aaaag
0aaaah
0aaaai
0aaaaj
0aaaak
0aaaal
0aaaam
0aaaan
0aaaao
0aaaap
0aaaaq
$end

#12022
1aaaai
#12027
0aaaai
#12036
1aaaai
#12038
0aaaai
#12039
1aaaae
1aaaai
#12040
0aaaae
#12041
1aaaae
#12043
1aaaaj
#12044
0aaaaj
#12045
0aaaae
1aaaak
1aaaam
#12046
1aaaaj
#12047
1aaaae
#12048
0aaaaj
#12049
0aaaae
#12050
1aaaae
0aaaam
#12051
1aaaaf
1aaaaj
0aaaak
#12055
0aaaaj
#12056
1aaaaj
#12057
1aaaah
#12065
0aaaaf
#12071
0aaaah
#12718
0aaaai
#12719
1aaaai
#12722
0aaaai
#12727
1aaaai
#12732
0aaaai
#12733
1aaaai
#12734
0aaaai
#12743
1aaaai
#12744
0aaaai
#12754
1aaaai
#12755
1aaaaf
#12756
0aaaai
#12757
1aaaah
#12763
1aaaai
#12768
0aaaai
#12769
1aaaai
#12770
0aaaai
#12773
0aaaaf
#12775
0aaaah
1aaaai
#12778
0aaaai
#12783
1aaaai
#12788
0aaaai
#12789
1aaaai
#12790
0aaaai
#12795
1aaaai
#12798
0aaaai
#12804
1aaaai
#12809
0aaaai
#12810
1aaaai
#12850
0aaaai
#12852
1aaaai
#12857
0aaaai
#12859
1aaaai
#12861
0aaaai
#12863
1aaaai
#12868
0aaaai
#12875
1aaaai
#13136
0aaaai
#13137
1aaaai
#13329
0aaaaj
#13331
1aaaaj
#13335
0aaaae
#13337
1aaaae
#13520
0aaaai
#14084
0aaaae
#14085
1aaaae
0aaaaj
#14086
1aaaaj
#14813
0aaaae
#14814
0aaaaj
