examples/04_gemv_aiv/01_fp16_cm_gemv_aiv/sim_result/OPPROF_20250306113833_JOEPNZFYBHYXRDUT/dump/core16_wave.vcd
$date
    Mar 06, 2025       11:38:36
$end

$version
    vcd_version : 1
$end

$timescale
    1 tick
$end

$scope module AiCore $end
$scope module fixp $end
$var wire    1  aaaaa  fixp_l0c_read       $end
$var wire    1  aaaao  fixp_su_busy       $end
$upscope $end
$scope module mte $end
$var wire    1  aaaab  mte3_suv1_busy       $end
$var wire    1  aaaac  mte2_suv1_busy       $end
$var wire    1  aaaak  mte1_su_busy       $end
$var wire    1  aaaal  mte3_su_busy       $end
$var wire    1  aaaam  mte2_su_busy       $end
$var wire    1  aaaan  mte3_suv0_busy       $end
$var wire    1  aaaaq  mte2_suv0_busy       $end
$upscope $end
$scope module cube $end
$var wire    1  aaaad  cube_busy       $end
$upscope $end
$scope module suv0 $end
$var wire    1  aaaae  suv0_busy       $end
$upscope $end
$scope module vec0 $end
$var wire    1  aaaaf  vec0_busy       $end
$var wire    1  aaaap  vec0_ub_write       $end
$upscope $end
$scope module vec1 $end
$var wire    1  aaaag  vec1_ub_write       $end
$var wire    1  aaaah  vec1_busy       $end
$upscope $end
$scope module su $end
$var wire    1  aaaai  su_busy       $end
$upscope $end
$scope module suv1 $end
$var wire    1  aaaaj  suv1_busy       $end
$upscope $end
$upscope $end
$enddefinitions  $end

$comment
    all initial values are dumped below at time : tick = 0
$end
$dumpvars
0aaaaa
0aaaab
0aaaac
0aaaad
0aaaae
0aaaaf
0aaaag
0aaaah
0aaaai
0aaaaj
0aaaak
0aaaal
0aaaam
0aaaan
0aaaao
0aaaap
0aaaaq
$end

#12043
1aaaai
#12048
0aaaai
#12051
1aaaai
#12053
0aaaai
#12054
1aaaai
#12056
0aaaai
#12063
1aaaai
1aaaaj
#12065
1aaaae
#12068
0aaaae
0aaaaj
1aaaak
1aaaam
#12069
1aaaae
#12071
0aaaae
#12073
0aaaam
#12074
0aaaak
#12077
1aaaaj
#12079
0aaaaj
#12081
1aaaae
1aaaah
#12083
0aaaae
1aaaaj
#12085
1aaaaf
#12095
1aaaae
0aaaah
#12099
0aaaaf
#12739
0aaaai
#12740
1aaaai
#12743
0aaaai
#12748
1aaaai
#12753
0aaaai
#12754
1aaaai
#12755
0aaaai
#12763
1aaaai
#12766
0aaaai
#12778
1aaaai
#12780
1aaaah
#12783
0aaaai
#12784
1aaaai
#12785
1aaaaf
0aaaai
#12790
1aaaai
#12793
0aaaai
#12798
0aaaah
1aaaai
#12803
0aaaaf
0aaaai
#12804
1aaaai
#12805
0aaaai
#12810
1aaaai
#12813
0aaaai
#12819
1aaaai
#12824
0aaaai
#12825
1aaaai
#12865
0aaaai
#12867
1aaaai
#12872
0aaaai
#12874
1aaaai
#12876
0aaaai
#12878
1aaaai
#12883
0aaaai
#12890
1aaaai
#13150
0aaaai
#13151
1aaaai
#13358
0aaaaj
#13360
1aaaaj
#13362
0aaaae
#13364
1aaaae
#13535
0aaaai
#14110
0aaaaj
#14111
1aaaaj
#14121
0aaaae
#14122
1aaaae
#14835
0aaaaj
#14841
0aaaae
